sim/waves.vcd
$date
    Mar 27, 2026  15:53:22
$end
$version
    TOOL:	xmsim	23.09-s012
$end
$timescale
    1 ns
$end

$scope module top_tb $end
$var reg       1 !    ACLK $end
$var reg       1 "    ARESETn $end

$scope module axi_if $end
$var parameter 32 #    AW $end
$var parameter 32 $    DW $end
$var wire      1 %    ACLK  $end
$var wire      1 &    ARESETn  $end
$var reg       4 '    AWADDR [3:0] $end
$var reg       1 (    AWVALID $end
$var reg       1 )    AWREADY $end
$var reg      32 *    WDATA [31:0] $end
$var reg       4 +    WSTRB [3:0] $end
$var reg       1 ,    WVALID $end
$var reg       1 -    WREADY $end
$var reg       2 .    BRESP [1:0] $end
$var reg       1 /    BVALID $end
$var reg       1 0    BREADY $end
$var reg       4 1    ARADDR [3:0] $end
$var reg       1 2    ARVALID $end
$var reg       1 3    ARREADY $end
$var reg      32 4    RDATA [31:0] $end
$var reg       2 5    RRESP [1:0] $end
$var reg       1 6    RVALID $end
$var reg       1 7    RREADY $end
$upscope $end


$scope module dut $end
$var wire      1 8    ACLK  $end
$var wire      1 9    ARESETn  $end
$var reg       1 :    wr_en $end
$var reg       4 ;    wr_addr [3:0] $end
$var reg      32 <    wr_data [31:0] $end
$var reg       1 =    rd_en $end
$var reg       4 >    rd_addr [3:0] $end
$var reg      32 ?    rd_data [31:0] $end
$var reg       1 @    irq_clear $end
$var reg       1 A    bvalid_r $end
$var reg       4 B    latched_rd_addr [3:0] $end
$var reg       1 C    read_pending $end
$var reg       1 D    start $end
$var reg       1 E    stop $end
$var reg      32 F    load_val [31:0] $end
$var reg      32 G    cur_count [31:0] $end
$var reg       1 H    irq $end

$scope module regs $end
$var parameter 32 I    AW $end
$var parameter 32 J    DW $end
$var wire      1 8    clk  $end
$var wire      1 9    rstn  $end
$var wire      4 K    wr_addr [3:0] $end
$var wire     32 L    wr_data [31:0] $end
$var wire      1 M    wr_en  $end
$var reg       1 N    wr_ready $end
$var wire      4 O    rd_addr [3:0] $end
$var wire      1 P    rd_en  $end
$var reg      32 Q    rd_data [31:0] $end
$var reg       1 R    rd_valid $end
$var reg       1 S    start $end
$var reg       1 T    stop $end
$var reg      32 U    load_val [31:0] $end
$var wire     32 V    cur_count [31:0] $end
$var wire      1 W    irq  $end
$var reg       1 X    irq_clear $end
$var reg      32 Y    CTRL [31:0] $end
$var reg      32 Z    LOAD [31:0] $end
$var reg      32 [    IRQSTAT [31:0] $end
$upscope $end


$scope module core $end
$var wire      1 8    clk  $end
$var wire      1 9    rstn  $end
$var wire      1 \    start  $end
$var wire      1 ]    stop  $end
$var wire      1 ^    irq_clear  $end
$var wire     32 _    load_val [31:0] $end
$var reg      32 `    cur_count [31:0] $end
$var reg       1 a    irq $end
$var reg       1 b    running $end
$upscope $end

$upscope $end

$upscope $end

$enddefinitions $end
$dumpvars
b100000 J
b100 I
b100000 $
b100 #
0!
0"
0%
0&
b0 '
0(
1)
b0 *
b0 +
0,
1-
b0 .
0/
00
b0 1
02
13
b0 4
b0 5
06
07
08
09
0:
b0 ;
b0 <
0=
b0 >
b0 ?
0@
0A
b0 B
0C
0D
0E
b0 F
b0 G
0H
b0 K
b0 L
0M
1N
b0 O
0P
b0 Q
0R
0S
0T
b0 U
b0 V
0W
0X
b0 Y
b0 Z
b0 [
0\
0]
0^
b0 _
b0 `
0a
0b
$end
#5
1!
18
1%
#10
0!
08
0%
#15
1!
18
1%
#20
0!
08
0%
#25
1!
18
1%
#30
0!
08
0%
#35
1!
18
1%
#40
0!
08
0%
#45
1!
18
1%
#50
1"
0!
08
0%
19
1&
1(
b1 *
b1111 +
1,
1:
b1 <
b1 L
1M
#55
1!
18
1%
b1 Y
1A
0(
0,
b1 Q
1S
1/
0:
0M
1D
b1 ?
b1 4
1\
#60
0!
08
0%
#65
1!
18
1%
1b
10
#70
0!
08
0%
#75
1!
18
1%
b1 `
0A
00
0/
b1 G
b1 V
#80
0!
08
0%
#85
1!
18
1%
b10 `
b10 G
b10 V
b1000 1
12
#90
0!
08
0%
#95
1!
18
1%
b11 `
b1000 B
1C
02
17
b1000 >
1=
16
1P
b1000 O
1R
b10 Q
b11 G
b11 V
b11 Q
b10 ?
b10 4
b11 ?
b11 4
#100
0!
08
0%
#105
1!
18
1%
b100 `
0C
07
0=
06
0P
0R
b100 G
b100 V
b100 Q
b100 ?
b100 4
#110
0!
08
0%
#115
1!
18
1%
b101 `
b101 G
b101 V
b101 Q
b101 ?
b101 4
#120
0!
08
0%
#125
1!
18
1%
b110 `
b110 G
b110 V
b110 Q
b110 ?
b110 4
#130
0!
08
0%
#135
1!
18
1%
b111 `
b111 G
b111 V
b111 Q
b111 ?
b111 4
#140
0!
08
0%
#145
1!
18
1%
b1000 `
b1000 G
b1000 V
b1000 Q
b1000 ?
b1000 4
#150
0!
08
0%
#155
1!
18
1%
b1001 `
b1001 G
b1001 V
b1001 Q
b1001 ?
b1001 4
#160
0!
08
0%
#165
1!
18
1%
b1010 `
b1010 G
b1010 V
b1010 Q
b1010 ?
b1010 4
#170
0!
08
0%
#175
1!
18
1%
b1011 `
b1011 G
b1011 V
b1011 Q
b1011 ?
b1011 4
#180
0!
08
0%
#185
1!
18
1%
b1100 `
b1100 G
b1100 V
b1100 Q
b1100 ?
b1100 4
#190
0!
08
0%
#195
1!
18
1%
b1101 `
b1101 G
b1101 V
b1101 Q
b1101 ?
b1101 4
#200
0!
08
0%
#205
1!
18
1%
b1110 `
b1110 G
b1110 V
b1110 Q
b1110 ?
b1110 4
